stabiliser
…
library(stabiliser)
data("stabiliser_example")

stabilise()

To attempt to identify which variables are truly “causal” in this dataset using a selection stability approach, use the stabilise() function as follows:

set.seed(8141)
stable_enet <- stabilise(data = stabiliser_example,
                         outcome = "y")

Access the stability (percentage of 100 bootstrap resamples where a given variable was selected by a given model) results for elastic net as follows:

stable_enet$enet$stability
#> # A tibble: 100 x 7
#>    variable mean_coefficient ci_lower ci_upper bootstrap_p stability stable
#>    <chr>               <dbl>    <dbl>    <dbl>       <dbl>     <dbl> <chr> 
#>  1 causal1              2.82   0.185      6.10           0      85   *     
#>  2 causal2              2.17   0.0609     5.31           0      83.5 *     
#>  3 causal3              2.82   0.249      6.33           0      71   <NA>  
#>  4 junk86               1.51   0.139      4.16           0      69   <NA>  
#>  5 junk14               2.71   0.174      6.64           0      65   <NA>  
#>  6 junk13               2.14   0.106      5.23           0      63.5 <NA>  
#>  7 junk45               2.43   0.127      6.89           0      61.5 <NA>  
#>  8 junk88               2.23   0.142      4.78           0      61   <NA>  
#>  9 junk90               1.74   0.0429     5.11           0      50.5 <NA>  
#> 10 junk26               1.51   0.0417     4.04           0      45.5 <NA>  
#> # ... with 90 more rows
…
The stability of variables is available for all model types as before.

The stability results from these three models stored within stable_combi can be combined using triangulate as follows:

triangulated <- triangulate(stable_combi)
triangulated
#> $combi
#> $combi$stability
#> # A tibble: 100 x 4
#>    variable stability bootstrap_p stable
#>    <chr>        <dbl>       <dbl> <chr> 
#>  1 causal1       58.5     0       *     
#>  2 causal2       48.7     0       *     
#>  3 causal3       41.8     0       <NA>  
#>  4 junk88        40.7     0.00444 <NA>  
#>  5 junk14        35       0       <NA>  
#>  6 junk13        34.7     0       <NA>  
#>  7 junk86        33.2     0       <NA>  
#>  8 junk45        26.5     0       <NA>  
#>  9 junk90        24.3     0.0101  <NA>  
#> 10 junk26        20       0.0128  <NA>  
#> # ... with 90 more rows
…
